{
  "name": "billing_tax",
  "base": "PersistedModel",
  "idInjection": true,
  "options": {
    "validateUpsert": true
  },
  "properties": {
    "tax": {
      "type": "number",
      "required": true
    },
    "jurisdiction": {
      "type": "string",
      "required": true
    },
    "country": {
      "type": "string",
      "required": true
    }
  },
  "validations": [],
  "relations": {},
  "acls": [],
  "methods": {}
}
