{
  "name": "billing_account",
  "plural": "billing_accounts",
  "base": "PersistedModel",
  "idInjection": true,
  "options": {
    "validateUpsert": true
  },
  "properties": {
    "first_name": {
      "type": "string",
      "required": true
    },
    "last_name": {
      "type": "string",
      "required": true
    },
    "address": {
      "type": "object",
      "required": true
    },
    "email": {
      "type": "string",
      "required": true
    },
    "phone": {
      "type": "string",
      "required": true
    }
  },
  "validations": [],
  "relations": {
    "billing_transactions": {
      "type": "hasMany",
      "model": "billing_transaction",
      "foreignKey": ""
    }
  },
  "acls": [],
  "methods": {}
}
